Region,Poblacion
MOQUEGUA,174863
LIMA METROPOLITANA,8574974
TACNA,329332
MADRE DE DIOS,141070
AREQUIPA,1382730
PASCO,254065
TUMBES,224863
APURIMAC,405759
AMAZONAS,379384
CALLAO,994494
LIMA REGIÓN,910431
ICA,850765
HUANCAVELICA,347639
ANCASH,1083519
JUNIN,1246038
CUSCO,1205527
UCAYALI,496459
HUANUCO,721047
AYACUCHO,616176
SAN MARTIN,813381
LAMBAYEQUE,1197260
CAJAMARCA,1341012
LA LIBERTAD,1778080
PIURA,1856809
LORETO,883510
PUNO,1172697
